<?xml version="1.0" encoding="UTF-8" standalone="no"?>
<!-- Created with Inkscape (http://www.inkscape.org/) -->

<svg
   xmlns:dc="http://purl.org/dc/elements/1.1/"
   xmlns:cc="http://creativecommons.org/ns#"
   xmlns:rdf="http://www.w3.org/1999/02/22-rdf-syntax-ns#"
   xmlns:svg="http://www.w3.org/2000/svg"
   xmlns="http://www.w3.org/2000/svg"
   xmlns:xlink="http://www.w3.org/1999/xlink"
   xmlns:sodipodi="http://sodipodi.sourceforge.net/DTD/sodipodi-0.dtd"
   xmlns:inkscape="http://www.inkscape.org/namespaces/inkscape"
   width="62.436684mm"
   height="62.437923mm"
   viewBox="0 0 62.436684 62.437923"
   version="1.1"
   id="svg8"
   inkscape:version="0.92.4 5da689c313, 2019-01-14"
   sodipodi:docname="logo.svg">
  <defs
     id="defs2">
    <linearGradient
       id="linearGradient7517">
      <stop
         style="stop-color:#88aa00;stop-opacity:1"
         offset="0"
         id="stop7509" />
      <stop
         id="stop7511"
         offset="0.38577998"
         style="stop-color:#aad400;stop-opacity:1" />
      <stop
         id="stop7513"
         offset="0.77155995"
         style="stop-color:#ccff00;stop-opacity:1" />
      <stop
         style="stop-color:#ffff00;stop-opacity:1;"
         offset="1"
         id="stop7515" />
    </linearGradient>
    <linearGradient
       id="linearGradient7507">
      <stop
         id="stop7499"
         offset="0"
         style="stop-color:#88aa00;stop-opacity:1" />
      <stop
         style="stop-color:#aad400;stop-opacity:1"
         offset="0.38491711"
         id="stop7501" />
      <stop
         style="stop-color:#ccff00;stop-opacity:1"
         offset="0.77155995"
         id="stop7503" />
      <stop
         id="stop7505"
         offset="1"
         style="stop-color:#ffff00;stop-opacity:1;" />
    </linearGradient>
    <linearGradient
       id="linearGradient7497">
      <stop
         style="stop-color:#ccff00;stop-opacity:1"
         offset="0"
         id="stop7491" />
      <stop
         id="stop7493"
         offset="0.25452197"
         style="stop-color:#ffff00;stop-opacity:1" />
      <stop
         style="stop-color:#ffff00;stop-opacity:1;"
         offset="1"
         id="stop7495" />
    </linearGradient>
    <linearGradient
       id="linearGradient7489">
      <stop
         style="stop-color:#aad400;stop-opacity:1"
         offset="0"
         id="stop7483" />
      <stop
         id="stop7485"
         offset="0.25452197"
         style="stop-color:#ccff00;stop-opacity:1" />
      <stop
         style="stop-color:#ffff00;stop-opacity:1;"
         offset="1"
         id="stop7487" />
    </linearGradient>
    <linearGradient
       id="linearGradient7481">
      <stop
         style="stop-color:#c60000;stop-opacity:1;"
         offset="0"
         id="stop7473" />
      <stop
         id="stop7475"
         offset="0.04422363"
         style="stop-color:#668000;stop-opacity:1" />
      <stop
         id="stop7477"
         offset="0.36034104"
         style="stop-color:#aad400;stop-opacity:1" />
      <stop
         style="stop-color:#ffff00;stop-opacity:1;"
         offset="1"
         id="stop7479" />
    </linearGradient>
    <linearGradient
       id="linearGradient7469">
      <stop
         id="stop7461"
         offset="0"
         style="stop-color:#668000;stop-opacity:1" />
      <stop
         style="stop-color:#aad400;stop-opacity:1"
         offset="0.38491711"
         id="stop7463" />
      <stop
         style="stop-color:#ccff00;stop-opacity:1"
         offset="0.77155995"
         id="stop7465" />
      <stop
         id="stop7467"
         offset="1"
         style="stop-color:#ffff00;stop-opacity:1;" />
    </linearGradient>
    <linearGradient
       id="linearGradient7421">
      <stop
         style="stop-color:#668000;stop-opacity:1"
         offset="0"
         id="stop7413" />
      <stop
         id="stop7415"
         offset="0.38577998"
         style="stop-color:#aad400;stop-opacity:1" />
      <stop
         id="stop7417"
         offset="0.77155995"
         style="stop-color:#ccff00;stop-opacity:1" />
      <stop
         style="stop-color:#ffff00;stop-opacity:1;"
         offset="1"
         id="stop7419" />
    </linearGradient>
    <linearGradient
       id="linearGradient7411">
      <stop
         style="stop-color:#aad400;stop-opacity:1"
         offset="0"
         id="stop7405" />
      <stop
         id="stop7407"
         offset="0.25452197"
         style="stop-color:#ddff55;stop-opacity:1" />
      <stop
         style="stop-color:#ffff00;stop-opacity:1;"
         offset="1"
         id="stop7409" />
    </linearGradient>
    <linearGradient
       id="linearGradient7403">
      <stop
         id="stop7395"
         offset="0"
         style="stop-color:#668000;stop-opacity:1" />
      <stop
         style="stop-color:#aad400;stop-opacity:1"
         offset="0.38491711"
         id="stop7397" />
      <stop
         style="stop-color:#ddff55;stop-opacity:1"
         offset="0.77155995"
         id="stop7399" />
      <stop
         id="stop7401"
         offset="1"
         style="stop-color:#ffff00;stop-opacity:1;" />
    </linearGradient>
    <linearGradient
       id="linearGradient7378">
      <stop
         id="stop7370"
         offset="0"
         style="stop-color:#668000;stop-opacity:1" />
      <stop
         style="stop-color:#aad400;stop-opacity:1"
         offset="0.38491711"
         id="stop7372" />
      <stop
         style="stop-color:#d4ff2a;stop-opacity:1"
         offset="0.77155995"
         id="stop7374" />
      <stop
         id="stop7376"
         offset="1"
         style="stop-color:#ffff00;stop-opacity:1;" />
    </linearGradient>
    <linearGradient
       inkscape:collect="always"
       xlink:href="#linearGradient8709"
       id="linearGradient8711"
       x1="71.139946"
       y1="123.20605"
       x2="71.139946"
       y2="18.578218"
       gradientUnits="userSpaceOnUse"
       gradientTransform="matrix(0.59654439,0,0,0.59654439,24.988567,24.25901)" />
    <linearGradient
       inkscape:collect="always"
       id="linearGradient8709">
      <stop
         style="stop-color:#00cbff;stop-opacity:1"
         offset="0"
         id="stop8705" />
      <stop
         style="stop-color:#0070bb;stop-opacity:1"
         offset="1"
         id="stop8707" />
    </linearGradient>
    <linearGradient
       id="linearGradient5215">
      <stop
         id="stop5217"
         offset="0"
         style="stop-color:#f1f1f1;stop-opacity:1;" />
      <stop
         id="stop5219"
         offset="1"
         style="stop-color:#000000;stop-opacity:0.4054054;" />
    </linearGradient>
    <linearGradient
       id="linearGradient5205">
      <stop
         id="stop5207"
         offset="0"
         style="stop-color:#d8d8d8;stop-opacity:1;" />
      <stop
         id="stop5209"
         offset="1"
         style="stop-color:#000000;stop-opacity:0;" />
    </linearGradient>
    <linearGradient
       id="linearGradient4753">
      <stop
         style="stop-color:#101010;stop-opacity:1;"
         offset="0"
         id="stop4755" />
      <stop
         id="stop4761"
         offset="0.47657159"
         style="stop-color:#acacac;stop-opacity:1;" />
      <stop
         id="stop4759"
         offset="0.60369939"
         style="stop-color:#acacac;stop-opacity:1;" />
      <stop
         style="stop-color:#3e3e3e;stop-opacity:1;"
         offset="1"
         id="stop4757" />
    </linearGradient>
    <linearGradient
       id="linearGradient4249">
      <stop
         id="stop4251"
         offset="0"
         style="stop-color:#afafaf;stop-opacity:1;" />
      <stop
         id="stop4253"
         offset="1"
         style="stop-color:#0b0b0b;stop-opacity:1;" />
    </linearGradient>
    <linearGradient
       id="linearGradient4233">
      <stop
         id="stop4235"
         offset="0"
         style="stop-color:#6f6f6f;stop-opacity:1;" />
      <stop
         style="stop-color:#ffffff;stop-opacity:1"
         offset="0.0808401"
         id="stop4247" />
      <stop
         style="stop-color:#616161;stop-opacity:1;"
         offset="0.125"
         id="stop4245" />
      <stop
         style="stop-color:#535353;stop-opacity:1;"
         offset="0.25"
         id="stop4243" />
      <stop
         style="stop-color:#373737;stop-opacity:1;"
         offset="0.5"
         id="stop4241" />
      <stop
         id="stop4237"
         offset="1"
         style="stop-color:#000000;stop-opacity:1;" />
    </linearGradient>
    <linearGradient
       id="linearGradient4029">
      <stop
         id="stop4031"
         offset="0"
         style="stop-color:#3e3e3e;stop-opacity:1;" />
      <stop
         id="stop4033"
         offset="1"
         style="stop-color:#ffffff;stop-opacity:1;" />
    </linearGradient>
    <linearGradient
       id="linearGradient4981">
      <stop
         id="stop4983"
         offset="0"
         style="stop-color:#370000;stop-opacity:1;" />
      <stop
         id="stop4985"
         offset="1"
         style="stop-color:#616200;stop-opacity:1;" />
    </linearGradient>
    <linearGradient
       id="linearGradient4903">
      <stop
         id="stop4905"
         offset="0"
         style="stop-color:#668000;stop-opacity:1" />
      <stop
         style="stop-color:#668000;stop-opacity:1"
         offset="0.04422363"
         id="stop4907" />
      <stop
         style="stop-color:#aad400;stop-opacity:1"
         offset="0.36034104"
         id="stop4909" />
      <stop
         id="stop4911"
         offset="1"
         style="stop-color:#ffff00;stop-opacity:1;" />
    </linearGradient>
    <linearGradient
       id="linearGradient4873">
      <stop
         style="stop-color:#668000;stop-opacity:1"
         offset="0"
         id="stop4875" />
      <stop
         id="stop4877"
         offset="0.38491711"
         style="stop-color:#aad400;stop-opacity:1" />
      <stop
         id="stop4879"
         offset="0.77155995"
         style="stop-color:#ccff00;stop-opacity:1" />
      <stop
         style="stop-color:#ffff00;stop-opacity:1;"
         offset="1"
         id="stop4881" />
    </linearGradient>
    <linearGradient
       id="linearGradient4821">
      <stop
         id="stop4823"
         offset="0"
         style="stop-color:#668000;stop-opacity:1" />
      <stop
         style="stop-color:#aad400;stop-opacity:1"
         offset="0.38577998"
         id="stop4861" />
      <stop
         style="stop-color:#ccff00;stop-opacity:1"
         offset="0.77155995"
         id="stop4829" />
      <stop
         id="stop4825"
         offset="1"
         style="stop-color:#ffff00;stop-opacity:1;" />
    </linearGradient>
    <linearGradient
       id="linearGradient4809">
      <stop
         id="stop4811"
         offset="0"
         style="stop-color:#aad400;stop-opacity:1" />
      <stop
         style="stop-color:#ccff00;stop-opacity:1"
         offset="0.25452197"
         id="stop4817" />
      <stop
         id="stop4813"
         offset="1"
         style="stop-color:#ffff00;stop-opacity:1;" />
    </linearGradient>
    <linearGradient
       id="linearGradient4344">
      <stop
         id="stop4346"
         offset="0"
         style="stop-color:#ef0000;stop-opacity:1;" />
      <stop
         style="stop-color:#f75401;stop-opacity:1;"
         offset="0.45368573"
         id="stop4805" />
      <stop
         id="stop4348"
         offset="1"
         style="stop-color:#fff802;stop-opacity:1;" />
    </linearGradient>
    <symbol
       id="*Paper_Space0" />
    <symbol
       id="*Paper_Space" />
    <symbol
       id="*Model_Space" />
    <pattern
       y="0"
       x="0"
       width="8"
       patternUnits="userSpaceOnUse"
       id="Hatch"
       height="8">
      <path
         id="path3049"
         stroke-width="0.25"
         stroke="#000000"
         linecap="square"
         d="M8 4 l-4,4" />
      <path
         id="path3051"
         stroke-width="0.25"
         stroke="#000000"
         linecap="square"
         d="M6 2 l-4,4" />
      <path
         id="path3053"
         stroke-width="0.25"
         stroke="#000000"
         linecap="square"
         d="M4 0 l-4,4" />
    </pattern>
    <marker
       style="overflow:visible"
       id="DistanceX"
       orient="auto"
       refY="0"
       refX="0">
      <path
         style="stroke:#000000;stroke-width:0.5"
         id="path3046"
         d="M 3,-3 -3,3 M 0,-5 V 5"
         inkscape:connector-curvature="0" />
    </marker>
    <linearGradient
       gradientUnits="userSpaceOnUse"
       y2="299.19879"
       x2="363.88544"
       y1="113.39538"
       x1="387.54962"
       id="linearGradient4803"
       xlink:href="#linearGradient7378"
       inkscape:collect="always"
       gradientTransform="matrix(0.26458333,0,0,0.26458333,142.75718,-57.848093)" />
    <linearGradient
       gradientUnits="userSpaceOnUse"
       y2="375.65771"
       x2="341.68771"
       y1="360.03708"
       x1="417.96875"
       id="linearGradient4891"
       xlink:href="#linearGradient7403"
       inkscape:collect="always"
       gradientTransform="matrix(0.26458333,0,0,0.26458333,142.75718,-57.848093)" />
    <radialGradient
       gradientUnits="userSpaceOnUse"
       gradientTransform="matrix(0.32078342,-0.01146149,0.00139696,0.03909807,117.66898,56.182716)"
       r="50.650486"
       fy="495.59387"
       fx="434.08942"
       cy="495.59387"
       cx="434.08942"
       id="radialGradient4901"
       xlink:href="#linearGradient7481"
       inkscape:collect="always" />
    <linearGradient
       gradientUnits="userSpaceOnUse"
       y2="489.19949"
       x2="502.7338"
       y1="413.79886"
       x1="588.93628"
       id="linearGradient4921"
       xlink:href="#linearGradient7489"
       inkscape:collect="always"
       gradientTransform="matrix(0.26458333,0,0,0.26458333,142.75718,-57.848093)" />
    <linearGradient
       gradientUnits="userSpaceOnUse"
       y2="564.27228"
       x2="534.86096"
       y1="496.73953"
       x1="515.50256"
       id="linearGradient4977"
       xlink:href="#linearGradient7469"
       inkscape:collect="always"
       gradientTransform="matrix(0.26458333,0,0,0.26458333,142.75718,-57.848093)" />
    <linearGradient
       gradientUnits="userSpaceOnUse"
       y2="733.44366"
       x2="305.03671"
       y1="641.96503"
       x1="50.162903"
       id="linearGradient4035"
       xlink:href="#linearGradient4029"
       inkscape:collect="always" />
    <linearGradient
       gradientUnits="userSpaceOnUse"
       y2="697.80835"
       x2="326.39456"
       y1="697.80835"
       x1="48.514042"
       id="linearGradient4255"
       xlink:href="#linearGradient4249"
       inkscape:collect="always" />
    <linearGradient
       y2="650.30981"
       x2="67.791367"
       y1="632.71771"
       x1="56.430466"
       gradientUnits="userSpaceOnUse"
       id="linearGradient4332-7"
       xlink:href="#linearGradient4249"
       inkscape:collect="always" />
    <linearGradient
       y2="650.30981"
       x2="67.791367"
       y1="632.71771"
       x1="56.430466"
       gradientTransform="translate(16.462108,6.0241868)"
       gradientUnits="userSpaceOnUse"
       id="linearGradient4629"
       xlink:href="#linearGradient4249"
       inkscape:collect="always" />
    <linearGradient
       y2="650.30981"
       x2="67.791367"
       y1="632.71771"
       x1="56.430466"
       gradientTransform="translate(32.653947,11.977068)"
       gradientUnits="userSpaceOnUse"
       id="linearGradient4631"
       xlink:href="#linearGradient4249"
       inkscape:collect="always" />
    <linearGradient
       y2="650.30981"
       x2="67.791367"
       y1="632.71771"
       x1="56.430466"
       gradientTransform="translate(49.0839,18.168066)"
       gradientUnits="userSpaceOnUse"
       id="linearGradient4633"
       xlink:href="#linearGradient4249"
       inkscape:collect="always" />
    <linearGradient
       y2="650.30981"
       x2="67.791367"
       y1="632.71771"
       x1="56.430466"
       gradientTransform="translate(65.513853,24.359063)"
       gradientUnits="userSpaceOnUse"
       id="linearGradient4635"
       xlink:href="#linearGradient4249"
       inkscape:collect="always" />
    <linearGradient
       y2="650.30981"
       x2="67.791367"
       y1="632.71771"
       x1="56.430466"
       gradientTransform="translate(81.467577,30.311944)"
       gradientUnits="userSpaceOnUse"
       id="linearGradient4637"
       xlink:href="#linearGradient4249"
       inkscape:collect="always" />
    <linearGradient
       y2="650.30981"
       x2="67.791367"
       y1="632.71771"
       x1="56.430466"
       gradientTransform="translate(97.89753,36.02671)"
       gradientUnits="userSpaceOnUse"
       id="linearGradient4639"
       xlink:href="#linearGradient4249"
       inkscape:collect="always" />
    <linearGradient
       y2="650.30981"
       x2="67.791367"
       y1="632.71771"
       x1="56.430466"
       gradientTransform="translate(115.04183,41.741477)"
       gradientUnits="userSpaceOnUse"
       id="linearGradient4641"
       xlink:href="#linearGradient4249"
       inkscape:collect="always" />
    <linearGradient
       y2="650.30981"
       x2="67.791367"
       y1="632.71771"
       x1="56.430466"
       gradientTransform="translate(130.99555,47.694359)"
       gradientUnits="userSpaceOnUse"
       id="linearGradient4643"
       xlink:href="#linearGradient4249"
       inkscape:collect="always" />
    <linearGradient
       y2="650.30981"
       x2="67.791367"
       y1="632.71771"
       x1="56.430466"
       gradientTransform="translate(147.66362,53.647241)"
       gradientUnits="userSpaceOnUse"
       id="linearGradient4645"
       xlink:href="#linearGradient4249"
       inkscape:collect="always" />
    <linearGradient
       y2="650.30981"
       x2="67.791367"
       y1="632.71771"
       x1="56.430466"
       gradientTransform="translate(164.09357,59.838237)"
       gradientUnits="userSpaceOnUse"
       id="linearGradient4647"
       xlink:href="#linearGradient4249"
       inkscape:collect="always" />
    <linearGradient
       y2="650.30981"
       x2="67.791367"
       y1="632.71771"
       x1="56.430466"
       gradientTransform="translate(180.52353,65.314889)"
       gradientUnits="userSpaceOnUse"
       id="linearGradient4649"
       xlink:href="#linearGradient4249"
       inkscape:collect="always" />
    <linearGradient
       y2="650.30981"
       x2="67.791367"
       y1="632.71771"
       x1="56.430466"
       gradientTransform="translate(196.71536,71.744001)"
       gradientUnits="userSpaceOnUse"
       id="linearGradient4651"
       xlink:href="#linearGradient4249"
       inkscape:collect="always" />
    <linearGradient
       y2="650.30981"
       x2="67.791367"
       y1="632.71771"
       x1="56.430466"
       gradientTransform="translate(212.66909,77.934999)"
       gradientUnits="userSpaceOnUse"
       id="linearGradient4653"
       xlink:href="#linearGradient4249"
       inkscape:collect="always" />
    <linearGradient
       y2="650.30981"
       x2="67.791367"
       y1="632.71771"
       x1="56.430466"
       gradientTransform="translate(229.57527,82.935419)"
       gradientUnits="userSpaceOnUse"
       id="linearGradient4655"
       xlink:href="#linearGradient4249"
       inkscape:collect="always" />
    <linearGradient
       y2="650.30981"
       x2="67.791367"
       y1="632.71771"
       x1="56.430466"
       gradientTransform="translate(246.00523,89.126416)"
       gradientUnits="userSpaceOnUse"
       id="linearGradient4657"
       xlink:href="#linearGradient4249"
       inkscape:collect="always" />
    <linearGradient
       y2="733.44366"
       x2="305.03671"
       y1="641.96503"
       x1="50.162903"
       gradientTransform="translate(0.11034178,-0.45120379)"
       gradientUnits="userSpaceOnUse"
       id="linearGradient4692"
       xlink:href="#linearGradient4029"
       inkscape:collect="always" />
    <linearGradient
       y2="733.44366"
       x2="305.03671"
       y1="641.96503"
       x1="50.162903"
       gradientTransform="translate(-94.138416,56.066335)"
       gradientUnits="userSpaceOnUse"
       id="linearGradient4704-3"
       xlink:href="#linearGradient4029"
       inkscape:collect="always" />
    <linearGradient
       inkscape:collect="always"
       xlink:href="#linearGradient4753"
       id="linearGradient4785"
       gradientUnits="userSpaceOnUse"
       gradientTransform="translate(-94.138416,56.066335)"
       x1="462.33984"
       y1="762.51996"
       x2="447.14349"
       y2="713.91241" />
    <linearGradient
       gradientUnits="userSpaceOnUse"
       y2="414.70935"
       x2="493.78342"
       y1="352.22678"
       x1="452.4986"
       id="linearGradient4859-0"
       xlink:href="#linearGradient7421"
       inkscape:collect="always"
       gradientTransform="matrix(0.43985981,0,0,0.43985981,-176.889,-149.50903)" />
  </defs>
  <sodipodi:namedview
     id="base"
     pagecolor="#ffffff"
     bordercolor="#666666"
     borderopacity="1.0"
     inkscape:pageopacity="0.0"
     inkscape:pageshadow="2"
     inkscape:zoom="0.7"
     inkscape:cx="240.98425"
     inkscape:cy="83.924528"
     inkscape:document-units="mm"
     inkscape:current-layer="layer1"
     showgrid="false"
     showguides="false"
     inkscape:window-width="2560"
     inkscape:window-height="1375"
     inkscape:window-x="0"
     inkscape:window-y="0"
     inkscape:window-maximized="1"
     fit-margin-top="0"
     fit-margin-left="0"
     fit-margin-right="0"
     fit-margin-bottom="0" />
  <metadata
     id="metadata5">
    <rdf:RDF>
      <cc:Work
         rdf:about="">
        <dc:format>image/svg+xml</dc:format>
        <dc:type
           rdf:resource="http://purl.org/dc/dcmitype/StillImage" />
        <dc:title></dc:title>
      </cc:Work>
    </rdf:RDF>
  </metadata>
  <g
     inkscape:label="Layer 1"
     inkscape:groupmode="layer"
     id="layer1"
     transform="translate(-36.133232,-35.39471)">
    <g
       id="g7738">
      <path
         sodipodi:nodetypes="cccccccccccccccccccccccccccccccccccccccscccccccccccccccccccccccccccccccccccccccscccccccccccccccccccccccccccccccccccccccscccccccccccccccccccccccccccccccccccccccscccccscccccccccccccccccccccc"
         inkscape:connector-curvature="0"
         style="fill:url(#linearGradient8711);fill-opacity:1;stroke-width:0.26458332"
         id="path2"
         d="m 98.143405,65.847699 -2.621216,-1.622601 c -0.0221,-0.255322 -0.04712,-0.510046 -0.07456,-0.763578 l 2.25255,-2.101028 c 0.229074,-0.213561 0.331681,-0.529732 0.269639,-0.83576 -0.06024,-0.30722 -0.275603,-0.560154 -0.568507,-0.669322 l -2.87952,-1.076763 c -0.07217,-0.249356 -0.147951,-0.496921 -0.225493,-0.743294 l 1.796194,-2.494748 c 0.183145,-0.253531 0.220731,-0.583422 0.101416,-0.872746 -0.119317,-0.288129 -0.379999,-0.494534 -0.688415,-0.545241 l -3.036424,-0.493939 c -0.118121,-0.230265 -0.241002,-0.456953 -0.365084,-0.68185 l 1.276009,-2.800775 c 0.130634,-0.285149 0.103801,-0.616829 -0.07039,-0.875728 -0.173587,-0.260093 -0.467691,-0.412212 -0.781473,-0.400281 l -3.08175,0.107368 C 89.287107,48.778168 89.12484,48.580709 88.959596,48.386832 l 0.7081,-3.001811 c 0.07158,-0.304833 -0.01849,-0.623985 -0.240407,-0.845304 -0.220122,-0.220731 -0.539873,-0.311993 -0.844707,-0.240407 l -3.001216,0.707502 c -0.194464,-0.164658 -0.391929,-0.327503 -0.591772,-0.48678 l 0.107971,-3.081748 c 0.01195,-0.311993 -0.14019,-0.608475 -0.400276,-0.781473 -0.26069,-0.174195 -0.59058,-0.200438 -0.875131,-0.071 l -2.80018,1.276602 c -0.226089,-0.124073 -0.452777,-0.246968 -0.681851,-0.36568 l -0.495131,-3.037008 c -0.05012,-0.307818 -0.256514,-0.569102 -0.545241,-0.688412 -0.288132,-0.119903 -0.618617,-0.08112 -0.872148,0.101415 l -2.49654,1.796194 c -0.245776,-0.07815 -0.492744,-0.153317 -0.7421,-0.224901 l -1.076757,-2.88009 c -0.109176,-0.293499 -0.362102,-0.508854 -0.669324,-0.5697 -0.306622,-0.06024 -0.622194,0.04176 -0.835161,0.269639 l -2.10103,2.254341 c -0.253531,-0.02805 -0.508851,-0.05369 -0.763575,-0.07456 l -1.622602,-2.62182 C 67.95647,35.556374 67.66595,35.39471 67.353362,35.39471 c -0.31259,0 -0.603107,0.161659 -0.76656,0.427125 L 64.9642,38.443648 c -0.25532,0.02096 -0.510641,0.04654 -0.764173,0.07456 l -2.101625,-2.254341 c -0.212975,-0.22788 -0.529134,-0.32989 -0.835164,-0.269638 -0.307219,0.06143 -0.560153,0.2762 -0.669321,0.569699 l -1.076763,2.880116 c -0.249356,0.07158 -0.496324,0.147342 -0.742697,0.224902 l -2.495942,-1.796195 c -0.253532,-0.183146 -0.584017,-0.221903 -0.872744,-0.101415 -0.288131,0.119316 -0.495131,0.380595 -0.545241,0.688411 l -0.495131,3.037009 c -0.229074,0.118707 -0.455761,0.241003 -0.681851,0.36568 l -2.80018,-1.276598 c -0.284553,-0.130048 -0.616231,-0.103199 -0.87513,0.071 -0.260093,0.172999 -0.412212,0.46948 -0.400283,0.781472 l 0.107391,3.081751 c -0.199243,0.159268 -0.3967,0.322133 -0.59177,0.486779 L 46.12236,44.299335 c -0.304834,-0.071 -0.624582,0.01961 -0.845305,0.240407 -0.221902,0.221316 -0.311992,0.540467 -0.240407,0.845301 l 0.706907,3.001814 c -0.164048,0.194463 -0.326309,0.391333 -0.485587,0.590577 l -3.08175,-0.107392 c -0.310799,-0.009 -0.607877,0.140196 -0.781472,0.400284 -0.174195,0.258899 -0.20044,0.590577 -0.07098,0.875725 l 1.276605,2.800778 c -0.124074,0.224902 -0.246969,0.451583 -0.365684,0.68185 l -3.03641,0.493939 c -0.308412,0.05009 -0.568507,0.256512 -0.688412,0.545241 -0.119316,0.289324 -0.08053,0.619212 0.101415,0.872743 l 1.796197,2.494748 c -0.07815,0.246374 -0.153903,0.493939 -0.225495,0.743294 l -2.880117,1.076764 c -0.292306,0.109175 -0.50766,0.362102 -0.568507,0.669322 -0.06085,0.306623 0.04118,0.622197 0.269639,0.835759 l 2.253148,2.101029 c -0.02803,0.253532 -0.05309,0.508854 -0.07457,0.763578 l -2.621216,1.622601 c -0.265463,0.164049 -0.427127,0.453971 -0.427127,0.767158 0,0.313185 0.16166,0.603105 0.427127,0.766559 l 2.621216,1.622601 c 0.02142,0.255322 0.04654,0.510046 0.07457,0.763577 L 37.003,71.869218 c -0.228477,0.212975 -0.330484,0.529134 -0.269639,0.835161 0.06085,0.307221 0.276201,0.55956 0.568507,0.669324 l 2.880117,1.076762 c 0.07158,0.249356 0.147342,0.496922 0.225495,0.743296 l -1.796197,2.495344 c -0.182537,0.254128 -0.221317,0.584017 -0.101415,0.872149 0.119903,0.289322 0.380598,0.495727 0.68901,0.545241 l 3.035815,0.493939 c 0.118708,0.230265 0.240407,0.456953 0.365681,0.683043 l -1.276605,2.799581 c -0.130049,0.284551 -0.103199,0.615635 0.07098,0.875729 0.174194,0.260688 0.470673,0.412808 0.781472,0.40028 l 3.080558,-0.107971 c 0.160463,0.20044 0.322133,0.396704 0.486779,0.591774 l -0.706907,3.002408 c -0.07159,0.304238 0.01849,0.622194 0.240407,0.843514 0.220123,0.222512 0.540471,0.311395 0.845305,0.239809 l 3.001216,-0.706907 c 0.195073,0.165831 0.392527,0.326908 0.59177,0.485588 l -0.107391,3.082345 c -0.01195,0.311993 0.140195,0.607878 0.400283,0.78207 0.258899,0.173587 0.590577,0.199853 0.87513,0.06981 l 2.80018,-1.276009 c 0.225492,0.125268 0.45218,0.24697 0.681848,0.365682 l 0.495134,3.035218 c 0.05009,0.30901 0.256512,0.570296 0.545241,0.689009 0.288131,0.119903 0.619212,0.08112 0.872744,-0.100824 l 2.49475,-1.79739 c 0.246372,0.07815 0.493938,0.154512 0.743292,0.226091 l 1.076763,2.878925 c 0.109175,0.292305 0.362102,0.508851 0.669323,0.568507 0.306625,0.06205 0.622196,-0.04056 0.835163,-0.269639 l 2.101626,-2.253147 c 0.253531,0.02922 0.508851,0.05368 0.764173,0.07636 l 1.622602,2.621216 c 0.16344,0.26427 0.453967,0.427127 0.766558,0.427127 0.31259,0 0.603107,-0.162268 0.767155,-0.427127 l 1.622602,-2.621216 c 0.255322,-0.02266 0.510046,-0.04712 0.763578,-0.07636 l 2.101028,2.253147 c 0.212975,0.229073 0.529136,0.331678 0.835163,0.269639 0.307219,-0.06024 0.560156,-0.276202 0.669321,-0.568507 l 1.076763,-2.878925 c 0.249356,-0.07158 0.496922,-0.147951 0.743295,-0.226091 l 2.495345,1.79739 c 0.253532,0.181951 0.584017,0.220731 0.872149,0.100824 0.288726,-0.118707 0.495131,-0.380597 0.54524,-0.689009 L 80.33954,91.73118 c 0.229072,-0.118708 0.45576,-0.242197 0.68185,-0.365682 l 2.800179,1.276009 c 0.284551,0.130048 0.615634,0.103801 0.875131,-0.06981 0.260093,-0.174194 0.411615,-0.46948 0.40028,-0.78207 l -0.107391,-3.082345 c 0.199244,-0.159268 0.396702,-0.319748 0.591176,-0.485588 l 3.001214,0.706905 c 0.304835,0.07159 0.624583,-0.01736 0.844707,-0.23981 0.221926,-0.221317 0.311994,-0.539277 0.240408,-0.843514 l -0.706905,-3.002407 c 0.164658,-0.195073 0.326908,-0.391334 0.485587,-0.591774 l 3.081748,0.107971 c 0.3108,0.01262 0.607879,-0.139585 0.781475,-0.40028 0.174195,-0.260095 0.201025,-0.591178 0.07039,-0.875729 l -1.276007,-2.799581 c 0.124682,-0.22609 0.246968,-0.452778 0.365085,-0.683044 l 3.036411,-0.493938 c 0.30901,-0.04951 0.569102,-0.255919 0.688411,-0.545241 0.119317,-0.288133 0.08174,-0.618022 -0.101415,-0.872149 l -1.796183,-2.495345 c 0.07756,-0.246373 0.153317,-0.493939 0.225495,-0.743295 l 2.87952,-1.076762 c 0.292903,-0.109755 0.508852,-0.362103 0.568507,-0.669324 0.06205,-0.306622 -0.04056,-0.622195 -0.269639,-0.835161 L 95.447015,69.76759 c 0.02744,-0.253531 0.05249,-0.508853 0.07456,-0.763577 l 2.621215,-1.622601 c 0.265464,-0.163463 0.427127,-0.453971 0.427127,-0.766559 0,-0.312591 -0.161072,-0.603109 -0.426529,-0.767158 z M 80.599631,87.59234 c -1.001003,-0.215951 -1.637516,-1.202634 -1.422761,-2.206619 0.214171,-1.002792 1.200249,-1.641094 2.200653,-1.425145 1.001002,0.214169 1.638709,1.202633 1.423953,2.204827 -0.214756,1.002195 -1.20144,1.641095 -2.201845,1.426937 z M 53.907252,87.50166 c -1.001002,0.215951 -1.986494,-0.422354 -2.201847,-1.425146 -0.21417,-1.00458 0.422354,-1.990667 1.423355,-2.206616 1.001002,-0.214169 1.987089,0.424142 2.201845,1.426933 0.21417,1.002195 -0.422949,1.990073 -1.423353,2.204829 z M 46.830444,58.804896 c 0.415194,0.93717 -0.0072,2.035408 -0.943136,2.450006 -0.935978,0.415792 -2.031233,-0.0072 -2.446428,-0.944927 -0.415195,-0.937767 0.0072,-2.034215 0.943137,-2.450005 0.936574,-0.415196 2.031232,0.0072 2.446427,0.944926 z M 65.974151,41.429942 c 0.739714,-0.708692 1.913119,-0.680656 2.621215,0.06024 0.706905,0.7427 0.680061,1.917293 -0.06143,2.625393 -0.739719,0.708695 -1.913123,0.681253 -2.62122,-0.06085 -0.70631,-0.741505 -0.679464,-1.916102 0.06144,-2.624797 z m 21.702286,17.465032 c 0.414597,-0.937172 1.509853,-1.360121 2.44583,-0.944331 0.935981,0.415195 1.358334,1.512838 0.943139,2.450008 -0.414599,0.937768 -1.509855,1.360719 -2.44643,0.944926 -0.934785,-0.415194 -1.357139,-1.51224 -0.942539,-2.450603 z" />
      <text
         id="text5241"
         y="71.198135"
         x="50.085072"
         style="font-style:normal;font-variant:normal;font-weight:normal;font-stretch:normal;font-size:18.09052467px;line-height:1.25;font-family:'TGL 0-17';-inkscape-font-specification:'TGL 0-17';letter-spacing:0px;word-spacing:0px;fill:#ffffff;fill-opacity:1;stroke:none;stroke-width:0.26458332"
         xml:space="preserve"><tspan
           style="font-style:normal;font-variant:normal;font-weight:normal;font-stretch:normal;font-family:'TGL 0-17';-inkscape-font-specification:'TGL 0-17';fill:#ffffff;stroke-width:0.26458332"
           y="71.198135"
           x="50.085072"
           id="tspan5239"
           sodipodi:role="line">PyO<tspan
   id="tspan5243"
   style="font-style:normal;font-variant:normal;font-weight:normal;font-stretch:normal;font-size:11.75884056px;font-family:'TGL 0-17';-inkscape-font-specification:'TGL 0-17';baseline-shift:sub;fill:#ffffff;stroke-width:0.26458332">3</tspan></tspan></text>
    </g>
  </g>
</svg>
